%YAML 1.1
%TAG !u! tag:unity3d.com,2011:
--- !u!1001 &4822399183874081816
PrefabInstance:
  m_ObjectHideFlags: 0
  serializedVersion: 2
  m_Modification:
    serializedVersion: 3
    m_TransformParent: {fileID: 0}
    m_Modifications:
    - target: {fileID: 16285582056048688, guid: c54f7bda69f161c4b8c791c457a04111,
        type: 3}
      propertyPath: m_Enabled
      value: 0
      objectReference: {fileID: 0}
    - target: {fileID: 1410537729824446058, guid: c54f7bda69f161c4b8c791c457a04111,
        type: 3}
      propertyPath: m_LocalScale.x
      value: 0.5
      objectReference: {fileID: 0}
    - target: {fileID: 1410537729824446058, guid: c54f7bda69f161c4b8c791c457a04111,
        type: 3}
      propertyPath: m_LocalScale.y
      value: 0.5
      objectReference: {fileID: 0}
    - target: {fileID: 1410537729824446058, guid: c54f7bda69f161c4b8c791c457a04111,
        type: 3}
      propertyPath: m_LocalScale.z
      value: 0.5
      objectReference: {fileID: 0}
    - target: {fileID: 1410537729824446058, guid: c54f7bda69f161c4b8c791c457a04111,
        type: 3}
      propertyPath: m_LocalPosition.x
      value: 2.11
      objectReference: {fileID: 0}
    - target: {fileID: 1410537729824446058, guid: c54f7bda69f161c4b8c791c457a04111,
        type: 3}
      propertyPath: m_LocalPosition.y
      value: 0.91
      objectReference: {fileID: 0}
    - target: {fileID: 1410537729824446058, guid: c54f7bda69f161c4b8c791c457a04111,
        type: 3}
      propertyPath: m_LocalPosition.z
      value: 0
      objectReference: {fileID: 0}
    - target: {fileID: 1410537729824446058, guid: c54f7bda69f161c4b8c791c457a04111,
        type: 3}
      propertyPath: m_LocalRotation.w
      value: 1
      objectReference: {fileID: 0}
    - target: {fileID: 1410537729824446058, guid: c54f7bda69f161c4b8c791c457a04111,
        type: 3}
      propertyPath: m_LocalRotation.x
      value: 0
      objectReference: {fileID: 0}
    - target: {fileID: 1410537729824446058, guid: c54f7bda69f161c4b8c791c457a04111,
        type: 3}
      propertyPath: m_LocalRotation.y
      value: -0
      objectReference: {fileID: 0}
    - target: {fileID: 1410537729824446058, guid: c54f7bda69f161c4b8c791c457a04111,
        type: 3}
      propertyPath: m_LocalRotation.z
      value: -0
      objectReference: {fileID: 0}
    - target: {fileID: 1410537729824446058, guid: c54f7bda69f161c4b8c791c457a04111,
        type: 3}
      propertyPath: m_LocalEulerAnglesHint.x
      value: 0
      objectReference: {fileID: 0}
    - target: {fileID: 1410537729824446058, guid: c54f7bda69f161c4b8c791c457a04111,
        type: 3}
      propertyPath: m_LocalEulerAnglesHint.y
      value: 0
      objectReference: {fileID: 0}
    - target: {fileID: 1410537729824446058, guid: c54f7bda69f161c4b8c791c457a04111,
        type: 3}
      propertyPath: m_LocalEulerAnglesHint.z
      value: 0
      objectReference: {fileID: 0}
    - target: {fileID: 1790440590342130896, guid: c54f7bda69f161c4b8c791c457a04111,
        type: 3}
      propertyPath: m_Name
      value: model Variant
      objectReference: {fileID: 0}
    - target: {fileID: 2702578167079045344, guid: c54f7bda69f161c4b8c791c457a04111,
        type: 3}
      propertyPath: m_Mass
      value: 0.4
      objectReference: {fileID: 0}
    - target: {fileID: 2702578167079045344, guid: c54f7bda69f161c4b8c791c457a04111,
        type: 3}
      propertyPath: m_UseGravity
      value: 0
      objectReference: {fileID: 0}
    - target: {fileID: 2702578167079045344, guid: c54f7bda69f161c4b8c791c457a04111,
        type: 3}
      propertyPath: m_IsKinematic
      value: 0
      objectReference: {fileID: 0}
    - target: {fileID: 4761226227917957994, guid: c54f7bda69f161c4b8c791c457a04111,
        type: 3}
      propertyPath: m_Radius
      value: 0.5
      objectReference: {fileID: 0}
    - target: {fileID: 4761226227917957994, guid: c54f7bda69f161c4b8c791c457a04111,
        type: 3}
      propertyPath: m_Enabled
      value: 1
      objectReference: {fileID: 0}
    m_RemovedComponents: []
    m_RemovedGameObjects: []
    m_AddedGameObjects: []
    m_AddedComponents:
    - targetCorrespondingSourceObject: {fileID: 1790440590342130896, guid: c54f7bda69f161c4b8c791c457a04111,
        type: 3}
      insertIndex: -1
      addedObject: {fileID: 4681508930157473057}
    - targetCorrespondingSourceObject: {fileID: 1790440590342130896, guid: c54f7bda69f161c4b8c791c457a04111,
        type: 3}
      insertIndex: -1
      addedObject: {fileID: 5141705187394097626}
  m_SourcePrefab: {fileID: 100100000, guid: c54f7bda69f161c4b8c791c457a04111, type: 3}
--- !u!1 &6499950707686918344 stripped
GameObject:
  m_CorrespondingSourceObject: {fileID: 1790440590342130896, guid: c54f7bda69f161c4b8c791c457a04111,
    type: 3}
  m_PrefabInstance: {fileID: 4822399183874081816}
  m_PrefabAsset: {fileID: 0}
--- !u!114 &4681508930157473057
MonoBehaviour:
  m_ObjectHideFlags: 0
  m_CorrespondingSourceObject: {fileID: 0}
  m_PrefabInstance: {fileID: 0}
  m_PrefabAsset: {fileID: 0}
  m_GameObject: {fileID: 6499950707686918344}
  m_Enabled: 1
  m_EditorHideFlags: 0
  m_Script: {fileID: 11500000, guid: 62c6bf2d925a42e4b8105634f2033a78, type: 3}
  m_Name: 
  m_EditorClassIdentifier: 
  manager: {fileID: 0}
  m_ConstantForce:
    x: 0
    y: 0
    z: 0
  useGravity: 1
  m_isFixed: 0
  m_GroundCollisionFactor: 1.8
  Mass: 0.3
  Position:
    x: 0
    y: 0
    z: 0
  PrevPosition:
    x: 0
    y: 0
    z: 0
  Velocity:
    x: 0
    y: 0
    z: 0
  m_CollisionImpluse:
    x: 0
    y: 0
    z: 0
  m_InitialImpulse:
    x: 0
    y: 0
    z: 0
  RotationAngles:
    x: 0
    y: 0
    z: 0
--- !u!135 &5141705187394097626
SphereCollider:
  m_ObjectHideFlags: 0
  m_CorrespondingSourceObject: {fileID: 0}
  m_PrefabInstance: {fileID: 0}
  m_PrefabAsset: {fileID: 0}
  m_GameObject: {fileID: 6499950707686918344}
  m_Material: {fileID: 0}
  m_IncludeLayers:
    serializedVersion: 2
    m_Bits: 0
  m_ExcludeLayers:
    serializedVersion: 2
    m_Bits: 0
  m_LayerOverridePriority: 0
  m_IsTrigger: 0
  m_ProvidesContacts: 0
  m_Enabled: 0
  serializedVersion: 3
  m_Radius: 0.8
  m_Center: {x: 0, y: 0, z: 0}
